simulation/qsim/wof.msim.vcd
$comment
	File created using the following command:
		vcd file wof.msim.vcd -direction
$end
$date
	Tue Oct 29 00:15:02 2019
$end
$version
	ModelSim Version 10.1d
$end
$timescale
	1ps
$end
$scope module wof_vlg_vec_tst $end
$var reg 1 ! btn $end
$var reg 1 " clk $end
$var wire 1 # led [7] $end
$var wire 1 $ led [6] $end
$var wire 1 % led [5] $end
$var wire 1 & led [4] $end
$var wire 1 ' led [3] $end
$var wire 1 ( led [2] $end
$var wire 1 ) led [1] $end
$var wire 1 * led [0] $end
$var wire 1 + ssd0 [6] $end
$var wire 1 , ssd0 [5] $end
$var wire 1 - ssd0 [4] $end
$var wire 1 . ssd0 [3] $end
$var wire 1 / ssd0 [2] $end
$var wire 1 0 ssd0 [1] $end
$var wire 1 1 ssd0 [0] $end
$var wire 1 2 ssd1 [6] $end
$var wire 1 3 ssd1 [5] $end
$var wire 1 4 ssd1 [4] $end
$var wire 1 5 ssd1 [3] $end
$var wire 1 6 ssd1 [2] $end
$var wire 1 7 ssd1 [1] $end
$var wire 1 8 ssd1 [0] $end
$var wire 1 9 ssd2 [6] $end
$var wire 1 : ssd2 [5] $end
$var wire 1 ; ssd2 [4] $end
$var wire 1 < ssd2 [3] $end
$var wire 1 = ssd2 [2] $end
$var wire 1 > ssd2 [1] $end
$var wire 1 ? ssd2 [0] $end
$var wire 1 @ ssd3 [6] $end
$var wire 1 A ssd3 [5] $end
$var wire 1 B ssd3 [4] $end
$var wire 1 C ssd3 [3] $end
$var wire 1 D ssd3 [2] $end
$var wire 1 E ssd3 [1] $end
$var wire 1 F ssd3 [0] $end
$var wire 1 G sampler $end
$scope module i1 $end
$var wire 1 H gnd $end
$var wire 1 I vcc $end
$var wire 1 J unknown $end
$var tri1 1 K devclrn $end
$var tri1 1 L devpor $end
$var tri1 1 M devoe $end
$var wire 1 N ssd0[0]~output_o $end
$var wire 1 O ssd0[1]~output_o $end
$var wire 1 P ssd0[2]~output_o $end
$var wire 1 Q ssd0[3]~output_o $end
$var wire 1 R ssd0[4]~output_o $end
$var wire 1 S ssd0[5]~output_o $end
$var wire 1 T ssd0[6]~output_o $end
$var wire 1 U ssd1[0]~output_o $end
$var wire 1 V ssd1[1]~output_o $end
$var wire 1 W ssd1[2]~output_o $end
$var wire 1 X ssd1[3]~output_o $end
$var wire 1 Y ssd1[4]~output_o $end
$var wire 1 Z ssd1[5]~output_o $end
$var wire 1 [ ssd1[6]~output_o $end
$var wire 1 \ ssd2[0]~output_o $end
$var wire 1 ] ssd2[1]~output_o $end
$var wire 1 ^ ssd2[2]~output_o $end
$var wire 1 _ ssd2[3]~output_o $end
$var wire 1 ` ssd2[4]~output_o $end
$var wire 1 a ssd2[5]~output_o $end
$var wire 1 b ssd2[6]~output_o $end
$var wire 1 c ssd3[0]~output_o $end
$var wire 1 d ssd3[1]~output_o $end
$var wire 1 e ssd3[2]~output_o $end
$var wire 1 f ssd3[3]~output_o $end
$var wire 1 g ssd3[4]~output_o $end
$var wire 1 h ssd3[5]~output_o $end
$var wire 1 i ssd3[6]~output_o $end
$var wire 1 j led[0]~output_o $end
$var wire 1 k led[1]~output_o $end
$var wire 1 l led[2]~output_o $end
$var wire 1 m led[3]~output_o $end
$var wire 1 n led[4]~output_o $end
$var wire 1 o led[5]~output_o $end
$var wire 1 p led[6]~output_o $end
$var wire 1 q led[7]~output_o $end
$var wire 1 r clk~input_o $end
$var wire 1 s sclk[0]~6_combout $end
$var wire 1 t sclk[1]~2_combout $end
$var wire 1 u sclk[1]~3 $end
$var wire 1 v sclk[2]~4_combout $end
$var wire 1 w ssd_out[0]~45_combout $end
$var wire 1 x btn~input_o $end
$var wire 1 y counter~0_combout $end
$var wire 1 z counter~q $end
$var wire 1 { ssd_out[1]~15_combout $end
$var wire 1 | ssd_out[1]~16 $end
$var wire 1 } ssd_out[2]~17_combout $end
$var wire 1 ~ ssd_out[2]~18 $end
$var wire 1 !! ssd_out[3]~19_combout $end
$var wire 1 "! Mux6~0_combout $end
$var wire 1 #! ssd0[0]~reg0_q $end
$var wire 1 $! Mux5~0_combout $end
$var wire 1 %! ssd0[1]~reg0_q $end
$var wire 1 &! Mux4~0_combout $end
$var wire 1 '! ssd0[2]~reg0_q $end
$var wire 1 (! Mux3~0_combout $end
$var wire 1 )! ssd0[3]~reg0_q $end
$var wire 1 *! Mux2~0_combout $end
$var wire 1 +! ssd0[4]~reg0_q $end
$var wire 1 ,! Mux1~0_combout $end
$var wire 1 -! ssd0[5]~reg0_q $end
$var wire 1 .! Mux0~0_combout $end
$var wire 1 /! ssd0[6]~reg0_q $end
$var wire 1 0! ssd_out[3]~20 $end
$var wire 1 1! ssd_out[4]~21_combout $end
$var wire 1 2! ssd_out[4]~22 $end
$var wire 1 3! ssd_out[5]~23_combout $end
$var wire 1 4! ssd_out[5]~24 $end
$var wire 1 5! ssd_out[6]~25_combout $end
$var wire 1 6! ssd_out[6]~26 $end
$var wire 1 7! ssd_out[7]~27_combout $end
$var wire 1 8! Mux13~0_combout $end
$var wire 1 9! ssd1[0]~reg0_q $end
$var wire 1 :! Mux12~0_combout $end
$var wire 1 ;! ssd1[1]~reg0_q $end
$var wire 1 <! Mux11~0_combout $end
$var wire 1 =! ssd1[2]~reg0_q $end
$var wire 1 >! Mux10~0_combout $end
$var wire 1 ?! ssd1[3]~reg0_q $end
$var wire 1 @! Mux9~0_combout $end
$var wire 1 A! ssd1[4]~reg0_q $end
$var wire 1 B! Mux8~0_combout $end
$var wire 1 C! ssd1[5]~reg0_q $end
$var wire 1 D! Mux7~0_combout $end
$var wire 1 E! ssd1[6]~reg0_q $end
$var wire 1 F! ssd_out[7]~28 $end
$var wire 1 G! ssd_out[8]~29_combout $end
$var wire 1 H! ssd_out[8]~30 $end
$var wire 1 I! ssd_out[9]~31_combout $end
$var wire 1 J! ssd_out[9]~32 $end
$var wire 1 K! ssd_out[10]~33_combout $end
$var wire 1 L! ssd_out[10]~34 $end
$var wire 1 M! ssd_out[11]~35_combout $end
$var wire 1 N! Mux20~0_combout $end
$var wire 1 O! ssd2[0]~reg0_q $end
$var wire 1 P! Mux19~0_combout $end
$var wire 1 Q! ssd2[1]~reg0_q $end
$var wire 1 R! Mux18~0_combout $end
$var wire 1 S! ssd2[2]~reg0_q $end
$var wire 1 T! Mux17~0_combout $end
$var wire 1 U! ssd2[3]~reg0_q $end
$var wire 1 V! Mux16~0_combout $end
$var wire 1 W! ssd2[4]~reg0_q $end
$var wire 1 X! Mux15~0_combout $end
$var wire 1 Y! ssd2[5]~reg0_q $end
$var wire 1 Z! Mux14~0_combout $end
$var wire 1 [! ssd2[6]~reg0_q $end
$var wire 1 \! ssd_out[11]~36 $end
$var wire 1 ]! ssd_out[12]~37_combout $end
$var wire 1 ^! ssd_out[12]~38 $end
$var wire 1 _! ssd_out[13]~39_combout $end
$var wire 1 `! ssd_out[13]~40 $end
$var wire 1 a! ssd_out[14]~41_combout $end
$var wire 1 b! ssd_out[14]~42 $end
$var wire 1 c! ssd_out[15]~43_combout $end
$var wire 1 d! Mux27~0_combout $end
$var wire 1 e! ssd3[0]~reg0_q $end
$var wire 1 f! Mux26~0_combout $end
$var wire 1 g! ssd3[1]~reg0_q $end
$var wire 1 h! Mux25~0_combout $end
$var wire 1 i! ssd3[2]~reg0_q $end
$var wire 1 j! Mux24~0_combout $end
$var wire 1 k! ssd3[3]~reg0_q $end
$var wire 1 l! Mux23~0_combout $end
$var wire 1 m! ssd3[4]~reg0_q $end
$var wire 1 n! Mux22~0_combout $end
$var wire 1 o! ssd3[5]~reg0_q $end
$var wire 1 p! Mux21~0_combout $end
$var wire 1 q! ssd3[6]~reg0_q $end
$var wire 1 r! ledtemp[1]~1_combout $end
$var wire 1 s! ledtemp[0]~0_combout $end
$var wire 1 t! led[0]~0_combout $end
$var wire 1 u! led[0]~reg0_q $end
$var wire 1 v! led[1]~reg0_q $end
$var wire 1 w! led[2]~reg0_q $end
$var wire 1 x! led[3]~reg0_q $end
$var wire 1 y! led[4]~reg0_q $end
$var wire 1 z! led[5]~reg0_q $end
$var wire 1 {! led[6]~reg0_q $end
$var wire 1 |! led[7]~reg0_q $end
$var wire 1 }! ledtemp [7] $end
$var wire 1 ~! ledtemp [6] $end
$var wire 1 !" ledtemp [5] $end
$var wire 1 "" ledtemp [4] $end
$var wire 1 #" ledtemp [3] $end
$var wire 1 $" ledtemp [2] $end
$var wire 1 %" ledtemp [1] $end
$var wire 1 &" ledtemp [0] $end
$var wire 1 '" ssd_out [15] $end
$var wire 1 (" ssd_out [14] $end
$var wire 1 )" ssd_out [13] $end
$var wire 1 *" ssd_out [12] $end
$var wire 1 +" ssd_out [11] $end
$var wire 1 ," ssd_out [10] $end
$var wire 1 -" ssd_out [9] $end
$var wire 1 ." ssd_out [8] $end
$var wire 1 /" ssd_out [7] $end
$var wire 1 0" ssd_out [6] $end
$var wire 1 1" ssd_out [5] $end
$var wire 1 2" ssd_out [4] $end
$var wire 1 3" ssd_out [3] $end
$var wire 1 4" ssd_out [2] $end
$var wire 1 5" ssd_out [1] $end
$var wire 1 6" ssd_out [0] $end
$var wire 1 7" sclk [31] $end
$var wire 1 8" sclk [30] $end
$var wire 1 9" sclk [29] $end
$var wire 1 :" sclk [28] $end
$var wire 1 ;" sclk [27] $end
$var wire 1 <" sclk [26] $end
$var wire 1 =" sclk [25] $end
$var wire 1 >" sclk [24] $end
$var wire 1 ?" sclk [23] $end
$var wire 1 @" sclk [22] $end
$var wire 1 A" sclk [21] $end
$var wire 1 B" sclk [20] $end
$var wire 1 C" sclk [19] $end
$var wire 1 D" sclk [18] $end
$var wire 1 E" sclk [17] $end
$var wire 1 F" sclk [16] $end
$var wire 1 G" sclk [15] $end
$var wire 1 H" sclk [14] $end
$var wire 1 I" sclk [13] $end
$var wire 1 J" sclk [12] $end
$var wire 1 K" sclk [11] $end
$var wire 1 L" sclk [10] $end
$var wire 1 M" sclk [9] $end
$var wire 1 N" sclk [8] $end
$var wire 1 O" sclk [7] $end
$var wire 1 P" sclk [6] $end
$var wire 1 Q" sclk [5] $end
$var wire 1 R" sclk [4] $end
$var wire 1 S" sclk [3] $end
$var wire 1 T" sclk [2] $end
$var wire 1 U" sclk [1] $end
$var wire 1 V" sclk [0] $end
$upscope $end
$upscope $end
$enddefinitions $end
#0
$dumpvars
0!
0"
0*
0)
0(
0'
0&
0%
0$
0#
01
00
0/
0.
0-
0,
0+
08
07
06
05
04
03
02
0?
0>
0=
0<
0;
0:
09
0F
0E
0D
0C
0B
0A
0@
xG
0H
1I
xJ
1K
1L
1M
0N
0O
0P
0Q
0R
0S
0T
0U
0V
0W
0X
0Y
0Z
0[
0\
0]
0^
0_
0`
0a
0b
0c
0d
0e
0f
0g
0h
0i
0j
0k
0l
0m
0n
0o
0p
0q
0r
1s
0t
0u
0v
1w
0x
1y
0z
0{
0|
0}
1~
0!!
0"!
0#!
0$!
0%!
0&!
0'!
0(!
0)!
0*!
0+!
0,!
0-!
1.!
0/!
00!
01!
12!
03!
04!
05!
16!
07!
08!
09!
0:!
0;!
0<!
0=!
0>!
0?!
0@!
0A!
0B!
0C!
1D!
0E!
0F!
0G!
1H!
0I!
0J!
0K!
1L!
0M!
0N!
0O!
0P!
0Q!
0R!
0S!
0T!
0U!
0V!
0W!
0X!
0Y!
1Z!
0[!
0\!
0]!
1^!
0_!
0`!
0a!
1b!
0c!
0d!
0e!
0f!
0g!
0h!
0i!
0j!
0k!
0l!
0m!
0n!
0o!
1p!
0q!
1r!
1s!
1t!
0u!
0v!
0w!
0x!
0y!
0z!
0{!
0|!
0&"
0%"
0$"
0#"
0""
0!"
0~!
0}!
06"
05"
04"
03"
02"
01"
00"
0/"
0."
0-"
0,"
0+"
0*"
0)"
0("
0'"
0V"
0U"
0T"
zS"
zR"
zQ"
zP"
zO"
zN"
zM"
zL"
zK"
zJ"
zI"
zH"
zG"
zF"
zE"
zD"
zC"
zB"
zA"
z@"
z?"
z>"
z="
z<"
z;"
z:"
z9"
z8"
z7"
$end
#4000
1"
1r
0G
1V"
1t
0s
1&"
1%"
1u!
0t!
0r!
1j
1*
#8000
0"
0r
1G
#12000
1"
1r
0G
1U"
0V"
1s
#16000
0"
0r
1G
#20000
1"
1r
0G
1V"
1u
0t
0s
1v
1$"
0%"
1v!
0u!
1k
0j
1)
0*
#24000
0"
0r
1G
#28000
1"
1r
0G
1T"
0U"
0V"
0v
0u
1s
1v
16"
1q!
1[!
1E!
1/!
1,!
1*!
1(!
1"!
1{
0w
1i
1b
1[
1T
1@
19
12
1+
#32000
0"
0r
1G
#36000
1"
1r
0G
1V"
1t
0s
1#"
0$"
1w!
0v!
1l
0k
1(
0)
#40000
0"
0r
1G
#44000
1"
1r
0G
1U"
0V"
1s
#48000
0"
0r
1G
#52000
1"
1r
0G
1V"
1u
0t
0s
0v
1""
0#"
1x!
0w!
1m
0l
1'
0(
#56000
0"
0r
1G
#60000
1"
1r
0G
0T"
0U"
0V"
1v
0u
1s
0v
#64000
0"
0r
1G
#68000
1"
1r
0G
1V"
1t
0s
1!"
0""
1y!
0x!
1n
0m
1&
0'
#72000
0"
0r
1G
#76000
1"
1r
0G
1U"
0V"
1s
#80000
0"
0r
1G
#84000
1"
1r
0G
1V"
1u
0t
0s
1v
1~!
0!"
1z!
0y!
1o
0n
1%
0&
#88000
0"
0r
1G
#92000
1"
1r
0G
1T"
0U"
0V"
0v
0u
1s
1v
15"
06"
1-!
1+!
1)!
1#!
0.!
0*!
0(!
1&!
0"!
1w
1S
1R
1Q
1N
1,
1-
1.
11
#96000
0"
0r
1G
#100000
1"
1r
0G
1V"
1t
0s
1}!
0~!
1{!
0z!
0s!
1p
0o
1$
0%
#104000
0"
0r
1G
#108000
1"
1r
0G
1U"
0V"
1s
#112000
0"
0r
1G
#116000
1"
1r
0G
1V"
1u
0t
0s
0v
0&"
0}!
1|!
0{!
1t!
1r!
1s!
1q
0p
1#
0$
#120000
0"
0r
1G
#124000
1"
1r
0G
0T"
0U"
0V"
1v
0u
1s
0v
#128000
0"
0r
1G
#132000
1"
1r
0G
1V"
1t
0s
1&"
1%"
0|!
1u!
0t!
0r!
0q
1j
0#
1*
#136000
0"
0r
1G
#140000
1"
1r
0G
1U"
0V"
1s
#144000
0"
0r
1G
#148000
1"
1r
0G
1V"
1u
0t
0s
1v
1$"
0%"
1v!
0u!
1k
0j
1)
0*
#152000
0"
0r
1G
#156000
1"
1r
0G
1T"
0U"
0V"
0v
0u
1s
1v
16"
0/!
0+!
0)!
1'!
0#!
0,!
1*!
1(!
0&!
1|
0{
0w
0T
0R
0Q
1P
0N
0+
0-
0.
1/
01
1}
#160000
1!
0"
1x
0r
1G
1z
0y
#164000
1"
1r
0G
1V"
1t
0s
#168000
0"
0r
1G
#170000
0!
0x
0G
#172000
1"
1r
1G
1U"
0V"
1s
#176000
0"
0r
0G
#180000
1"
1r
1G
1V"
1u
0t
0s
0v
#184000
0"
0r
0G
#188000
1"
1r
1G
0T"
0U"
0V"
1v
0u
1s
0v
#192000
0"
0r
0G
#196000
1"
1r
1G
1V"
1t
0s
#200000
0"
0r
0G
#204000
1"
1r
1G
1U"
0V"
1s
#208000
0"
0r
0G
#212000
1"
1r
1G
1V"
1u
0t
0s
1v
#216000
0"
0r
0G
#220000
1"
1r
1G
1T"
0U"
0V"
0v
0u
1s
1v
#224000
0"
0r
0G
#228000
1"
1r
1G
1V"
1t
0s
#232000
0"
0r
0G
#236000
1"
1r
1G
1U"
0V"
1s
#240000
0"
0r
0G
#244000
1"
1r
1G
1V"
1u
0t
0s
0v
#248000
0"
0r
0G
#252000
1"
1r
1G
0T"
0U"
0V"
1v
0u
1s
0v
#256000
0"
0r
0G
#260000
1"
1r
1G
1V"
1t
0s
#264000
0"
0r
0G
#268000
1"
1r
1G
1U"
0V"
1s
#272000
0"
0r
0G
#276000
1"
1r
1G
1V"
1u
0t
0s
1v
#280000
0"
0r
0G
#284000
1"
1r
1G
1T"
0U"
0V"
0v
0u
1s
1v
#288000
0"
0r
0G
#292000
1"
1r
1G
1V"
1t
0s
#296000
0"
0r
0G
#300000
1"
1r
1G
1U"
0V"
1s
#304000
0"
0r
0G
#308000
1"
1r
1G
1V"
1u
0t
0s
0v
#312000
0"
0r
0G
#316000
1"
1r
1G
0T"
0U"
0V"
1v
0u
1s
0v
#320000
0"
0r
0G
#324000
1"
1r
1G
1V"
1t
0s
#328000
0"
0r
0G
#332000
1"
1r
1G
1U"
0V"
1s
#336000
0"
0r
0G
#340000
1"
1r
1G
1V"
1u
0t
0s
1v
#344000
0"
0r
0G
#348000
1"
1r
1G
1T"
0U"
0V"
0v
0u
1s
1v
#350000
1!
1x
0G
0z
1y
#352000
0"
0r
1G
#356000
1"
1r
0G
1V"
1t
0s
1#"
0$"
1w!
0v!
1l
0k
1(
0)
#360000
0!
0"
0x
0r
1G
#364000
1"
1r
0G
1U"
0V"
1s
#368000
0"
0r
1G
#372000
1"
1r
0G
1V"
1u
0t
0s
0v
1""
0#"
1x!
0w!
1m
0l
1'
0(
#376000
0"
0r
1G
#380000
1"
1r
0G
0T"
0U"
0V"
1v
0u
1s
0v
#384000
0"
0r
1G
#388000
1"
1r
0G
1V"
1t
0s
1!"
0""
1y!
0x!
1n
0m
1&
0'
#392000
0"
0r
1G
#396000
1"
1r
0G
1U"
0V"
1s
#400000
0"
0r
1G
#404000
1"
1r
0G
1V"
1u
0t
0s
1v
1~!
0!"
1z!
0y!
1o
0n
1%
0&
#408000
0"
0r
1G
#412000
1"
1r
0G
1T"
0U"
0V"
0v
0u
1s
1v
14"
05"
06"
0-!
1+!
1)!
0'!
1"!
0~
0}
0|
1w
0S
1R
1Q
0P
0,
1-
1.
0/
1!!
1~
1}
0!!
#416000
0"
0r
1G
#420000
1"
1r
0G
1V"
1t
0s
1}!
0~!
1{!
0z!
0s!
1p
0o
1$
0%
#424000
0"
0r
1G
#428000
1"
1r
0G
1U"
0V"
1s
#432000
0"
0r
1G
#436000
1"
1r
0G
1V"
1u
0t
0s
0v
0&"
0}!
1|!
0{!
1t!
1r!
1s!
1q
0p
1#
0$
#440000
0"
0r
1G
#444000
1"
1r
0G
0T"
0U"
0V"
1v
0u
1s
0v
#448000
0"
0r
1G
#452000
1"
1r
0G
1V"
1t
0s
1&"
1%"
0|!
1u!
0t!
0r!
0q
1j
0#
1*
#456000
0"
0r
1G
#460000
1"
1r
0G
1U"
0V"
1s
#464000
0"
0r
1G
#468000
1"
1r
0G
1V"
1u
0t
0s
1v
1$"
0%"
1v!
0u!
1k
0j
1)
0*
#472000
0"
0r
1G
#476000
1"
1r
0G
1T"
0U"
0V"
0v
0u
1s
1v
16"
1#!
0(!
1$!
0"!
1{
0w
1N
11
#480000
0"
0r
1G
#484000
1"
1r
0G
1V"
1t
0s
1#"
0$"
1w!
0v!
1l
0k
1(
0)
#488000
0"
0r
1G
#492000
1"
1r
0G
1U"
0V"
1s
#496000
0"
0r
1G
#500000
1"
1r
0G
1V"
1u
0t
0s
0v
1""
0#"
1x!
0w!
1m
0l
1'
0(
#504000
0"
0r
1G
#508000
1"
1r
0G
0T"
0U"
0V"
1v
0u
1s
0v
#512000
0"
0r
1G
#516000
1"
1r
0G
1V"
1t
0s
1!"
0""
1y!
0x!
1n
0m
1&
0'
#520000
0"
0r
1G
#524000
1"
1r
0G
1U"
0V"
1s
#528000
0"
0r
1G
#532000
1"
1r
0G
1V"
1u
0t
0s
1v
1~!
0!"
1z!
0y!
1o
0n
1%
0&
#536000
0"
0r
1G
#540000
1"
1r
0G
1T"
0U"
0V"
0v
0u
1s
1v
15"
06"
0)!
1%!
0#!
0*!
1w
0Q
1O
0N
0.
10
01
#544000
0"
0r
1G
#548000
1"
1r
0G
1V"
1t
0s
1}!
0~!
1{!
0z!
0s!
1p
0o
1$
0%
#552000
0"
0r
1G
#556000
1"
1r
0G
1U"
0V"
1s
#560000
0"
0r
1G
#564000
1"
1r
0G
1V"
1u
0t
0s
0v
0&"
0}!
1|!
0{!
1t!
1r!
1s!
1q
0p
1#
0$
#568000
0"
0r
1G
#572000
1"
1r
0G
0T"
0U"
0V"
1v
0u
1s
0v
#576000
0"
0r
1G
#580000
1"
1r
0G
1V"
1t
0s
1&"
1%"
0|!
1u!
0t!
0r!
0q
1j
0#
1*
#584000
0"
0r
1G
#588000
1"
1r
0G
1U"
0V"
1s
#592000
0"
0r
1G
#596000
1"
1r
0G
1V"
1u
0t
0s
1v
1$"
0%"
1v!
0u!
1k
0j
1)
0*
#600000
0"
0r
1G
#604000
1"
1r
0G
1T"
0U"
0V"
0v
0u
1s
1v
16"
0+!
1.!
1,!
1*!
1(!
0$!
1|
0{
0w
0R
0-
0~
0}
1!!
#608000
0"
0r
1G
#612000
1"
1r
0G
1V"
1t
0s
1#"
0$"
1w!
0v!
1l
0k
1(
0)
#616000
0"
0r
1G
#620000
1"
1r
0G
1U"
0V"
1s
#624000
0"
0r
1G
#628000
1"
1r
0G
1V"
1u
0t
0s
0v
1""
0#"
1x!
0w!
1m
0l
1'
0(
#632000
0"
0r
1G
#636000
1"
1r
0G
0T"
0U"
0V"
1v
0u
1s
0v
#640000
0"
0r
1G
#644000
1"
1r
0G
1V"
1t
0s
1!"
0""
1y!
0x!
1n
0m
1&
0'
#648000
0"
0r
1G
#652000
1"
1r
0G
1U"
0V"
1s
#656000
0"
0r
1G
#660000
1"
1r
0G
1V"
1u
0t
0s
1v
1~!
0!"
1z!
0y!
1o
0n
1%
0&
#664000
0"
0r
1G
#668000
1"
1r
0G
1T"
0U"
0V"
0v
0u
1s
1v
13"
04"
05"
06"
1/!
1-!
1+!
1)!
0%!
0.!
0,!
0*!
0(!
10!
0!!
1~
1}
0|
1w
1T
1S
1R
1Q
0O
1+
1,
1-
1.
00
11!
00!
1!!
0}
01!
#672000
0"
0r
1G
#676000
1"
1r
0G
1V"
1t
0s
1}!
0~!
1{!
0z!
0s!
1p
0o
1$
0%
#680000
0"
0r
1G
#684000
1"
1r
0G
1U"
0V"
1s
#688000
0"
0r
1G
#692000
1"
1r
0G
1V"
1u
0t
0s
0v
0&"
0}!
1|!
0{!
1t!
1r!
1s!
1q
0p
1#
0$
#696000
0"
0r
1G
#700000
1"
1r
0G
0T"
0U"
0V"
1v
0u
1s
0v
#704000
0"
0r
1G
#708000
1"
1r
0G
1V"
1t
0s
1&"
1%"
0|!
1u!
0t!
0r!
0q
1j
0#
1*
#712000
0"
0r
1G
#716000
1"
1r
0G
1U"
0V"
1s
#720000
0"
0r
1G
#724000
1"
1r
0G
1V"
1u
0t
0s
1v
1$"
0%"
1v!
0u!
1k
0j
1)
0*
#728000
0"
0r
1G
#732000
1"
1r
0G
1T"
0U"
0V"
0v
0u
1s
1v
16"
0/!
0-!
0+!
0)!
1*!
1(!
1{
0w
0T
0S
0R
0Q
0+
0,
0-
0.
#736000
0"
0r
1G
#740000
1"
1r
0G
1V"
1t
0s
1#"
0$"
1w!
0v!
1l
0k
1(
0)
#744000
0"
0r
1G
#748000
1"
1r
0G
1U"
0V"
1s
#752000
0"
0r
1G
#756000
1"
1r
0G
1V"
1u
0t
0s
0v
1""
0#"
1x!
0w!
1m
0l
1'
0(
#760000
0"
0r
1G
#764000
1"
1r
0G
0T"
0U"
0V"
1v
0u
1s
0v
#768000
0"
0r
1G
#772000
1"
1r
0G
1V"
1t
0s
1!"
0""
1y!
0x!
1n
0m
1&
0'
#776000
0"
0r
1G
#780000
1"
1r
0G
1U"
0V"
1s
#784000
0"
0r
1G
#788000
1"
1r
0G
1V"
1u
0t
0s
1v
1~!
0!"
1z!
0y!
1o
0n
1%
0&
#792000
0"
0r
1G
#796000
1"
1r
0G
1T"
0U"
0V"
0v
0u
1s
1v
15"
06"
1+!
1)!
0*!
1w
1R
1Q
1-
1.
#800000
0"
0r
1G
#804000
1"
1r
0G
1V"
1t
0s
1}!
0~!
1{!
0z!
0s!
1p
0o
1$
0%
#808000
0"
0r
1G
#812000
1"
1r
0G
1U"
0V"
1s
#816000
0"
0r
1G
#820000
1"
1r
0G
1V"
1u
0t
0s
0v
0&"
0}!
1|!
0{!
1t!
1r!
1s!
1q
0p
1#
0$
#824000
0"
0r
1G
#828000
1"
1r
0G
0T"
0U"
0V"
1v
0u
1s
0v
#832000
0"
0r
1G
#836000
1"
1r
0G
1V"
1t
0s
1&"
1%"
0|!
1u!
0t!
0r!
0q
1j
0#
1*
#840000
0"
0r
1G
#844000
1"
1r
0G
1U"
0V"
1s
#848000
0"
0r
1G
#852000
1"
1r
0G
1V"
1u
0t
0s
1v
1$"
0%"
1v!
0u!
1k
0j
1)
0*
#856000
0"
0r
1G
#860000
1"
1r
0G
1T"
0U"
0V"
0v
0u
1s
1v
16"
0+!
0(!
1|
0{
0w
0R
0-
1}
#864000
0"
0r
1G
#868000
1"
1r
0G
1V"
1t
0s
1#"
0$"
1w!
0v!
1l
0k
1(
0)
#872000
0"
0r
1G
#876000
1"
1r
0G
1U"
0V"
1s
#880000
0"
0r
1G
#884000
1"
1r
0G
1V"
1u
0t
0s
0v
1""
0#"
1x!
0w!
1m
0l
1'
0(
#888000
0"
0r
1G
#892000
1"
1r
0G
0T"
0U"
0V"
1v
0u
1s
0v
#896000
0"
0r
1G
#900000
1"
1r
0G
1V"
1t
0s
1!"
0""
1y!
0x!
1n
0m
1&
0'
#904000
0"
0r
1G
#908000
1"
1r
0G
1U"
0V"
1s
#912000
0"
0r
1G
#916000
1"
1r
0G
1V"
1u
0t
0s
1v
1~!
0!"
1z!
0y!
1o
0n
1%
0&
#920000
0"
0r
1G
#924000
1"
1r
0G
1T"
0U"
0V"
0v
0u
1s
1v
14"
05"
06"
0)!
1.!
1&!
1$!
0~
0}
0|
1w
0Q
0.
10!
0!!
1~
1}
11!
00!
1!!
01!
#928000
0"
0r
1G
#932000
1"
1r
0G
1V"
1t
0s
1}!
0~!
1{!
0z!
0s!
1p
0o
1$
0%
#936000
0"
0r
1G
#940000
1"
1r
0G
1U"
0V"
1s
#944000
0"
0r
1G
#948000
1"
1r
0G
1V"
1u
0t
0s
0v
0&"
0}!
1|!
0{!
1t!
1r!
1s!
1q
0p
1#
0$
#952000
0"
0r
1G
#956000
1"
1r
0G
0T"
0U"
0V"
1v
0u
1s
0v
#960000
0"
0r
1G
#964000
1"
1r
0G
1V"
1t
0s
1&"
1%"
0|!
1u!
0t!
0r!
0q
1j
0#
1*
#968000
0"
0r
1G
#972000
1"
1r
0G
1U"
0V"
1s
#976000
0"
0r
1G
#980000
1"
1r
0G
1V"
1u
0t
0s
1v
1$"
0%"
1v!
0u!
1k
0j
1)
0*
#984000
0"
0r
1G
#988000
1"
1r
0G
1T"
0U"
0V"
0v
0u
1s
1v
16"
1/!
1'!
1%!
0&!
0$!
1{
0w
1T
1P
1O
1+
1/
10
#992000
0"
0r
1G
#996000
1"
1r
0G
1V"
1t
0s
1#"
0$"
1w!
0v!
1l
0k
1(
0)
